{
  "project_info": {
    "project_number": "304251820089",
    "project_id": "sensussoftapp-8e87e",
    "storage_bucket": "sensussoftapp-8e87e.appspot.com"
  },
  "client": [
    {
      "client_info": {
        "mobilesdk_app_id": "1:304251820089:android:2d520fe0b2c1412e5bd5e8",
        "android_client_info": {
          "package_name": "com.Sensussoft.Sensussoft_app"
        }
      },
      "oauth_client": [
        {
          "client_id": "304251820089-e9cb3csv1tlblp6r2pu8e604flct8s6s.apps.googleusercontent.com",
          "client_type": 3
        }
      ],
      "api_key": [
        {
          "current_key": "AIzaSyDzsnXAaooaQo2A6t7UdgAW_RL__LBgz-o"
        }
      ],
      "services": {
        "appinvite_service": {
          "other_platform_oauth_client": [
            {
              "client_id": "304251820089-e9cb3csv1tlblp6r2pu8e604flct8s6s.apps.googleusercontent.com",
              "client_type": 3
            }
          ]
        }
      }
    }
  ],
  "configuration_version": "1"
}